<?xml version="1.0" encoding="UTF-8"?>
<!--
SPDX-FileCopyrightText: Metadata Cleaner contributors
SPDX-License-Identifier: CC0-1.0
-->
<svg width="16" height="16" viewBox="0 0 16 16" xmlns="http://www.w3.org/2000/svg">
 <path d="m 12 2 c 0 -0.265625 -0.105469 -0.519531 -0.292969 -0.707031 c -0.390625 -0.390625 -1.023437 -0.390625 -1.414062 0 l -6 6 c -0.1875 0.1875 -0.292969 0.441406 -0.292969 0.707031 s 0.105469 0.519531 0.292969 0.707031 l 6 6 c 0.390625 0.390625 1.023437 0.390625 1.414062 0 c 0.1875 -0.1875 0.292969 -0.441406 0.292969 -0.707031 s -0.105469 -0.519531 -0.292969 -0.707031 l -5.292969 -5.292969 l 5.292969 -5.292969 c 0.1875 -0.1875 0.292969 -0.441406 0.292969 -0.707031 z m 0 0"/>
</svg>
